-- Merging decision tree log ---
manifest
ADDED from C:\Users\Administrator\Downloads\flutter_windows_1.20.1-stable\flutter\.pub-cache\hosted\pub.dartlang.org\flutter_plugin_android_lifecycle-1.0.11\android\src\main\AndroidManifest.xml:1:1-3:12
INJECTED from C:\Users\Administrator\Downloads\flutter_windows_1.20.1-stable\flutter\.pub-cache\hosted\pub.dartlang.org\flutter_plugin_android_lifecycle-1.0.11\android\src\main\AndroidManifest.xml:1:1-3:12
INJECTED from C:\Users\Administrator\Downloads\flutter_windows_1.20.1-stable\flutter\.pub-cache\hosted\pub.dartlang.org\flutter_plugin_android_lifecycle-1.0.11\android\src\main\AndroidManifest.xml:1:1-3:12
	package
		ADDED from C:\Users\Administrator\Downloads\flutter_windows_1.20.1-stable\flutter\.pub-cache\hosted\pub.dartlang.org\flutter_plugin_android_lifecycle-1.0.11\android\src\main\AndroidManifest.xml:2:3-64
		INJECTED from C:\Users\Administrator\Downloads\flutter_windows_1.20.1-stable\flutter\.pub-cache\hosted\pub.dartlang.org\flutter_plugin_android_lifecycle-1.0.11\android\src\main\AndroidManifest.xml
		INJECTED from C:\Users\Administrator\Downloads\flutter_windows_1.20.1-stable\flutter\.pub-cache\hosted\pub.dartlang.org\flutter_plugin_android_lifecycle-1.0.11\android\src\main\AndroidManifest.xml
	xmlns:android
		ADDED from C:\Users\Administrator\Downloads\flutter_windows_1.20.1-stable\flutter\.pub-cache\hosted\pub.dartlang.org\flutter_plugin_android_lifecycle-1.0.11\android\src\main\AndroidManifest.xml:1:11-69
uses-sdk
INJECTED from C:\Users\Administrator\Downloads\flutter_windows_1.20.1-stable\flutter\.pub-cache\hosted\pub.dartlang.org\flutter_plugin_android_lifecycle-1.0.11\android\src\main\AndroidManifest.xml reason: use-sdk injection requested
INJECTED from C:\Users\Administrator\Downloads\flutter_windows_1.20.1-stable\flutter\.pub-cache\hosted\pub.dartlang.org\flutter_plugin_android_lifecycle-1.0.11\android\src\main\AndroidManifest.xml
INJECTED from C:\Users\Administrator\Downloads\flutter_windows_1.20.1-stable\flutter\.pub-cache\hosted\pub.dartlang.org\flutter_plugin_android_lifecycle-1.0.11\android\src\main\AndroidManifest.xml
	android:minSdkVersion
		INJECTED from C:\Users\Administrator\Downloads\flutter_windows_1.20.1-stable\flutter\.pub-cache\hosted\pub.dartlang.org\flutter_plugin_android_lifecycle-1.0.11\android\src\main\AndroidManifest.xml
		ADDED from C:\Users\Administrator\Downloads\flutter_windows_1.20.1-stable\flutter\.pub-cache\hosted\pub.dartlang.org\flutter_plugin_android_lifecycle-1.0.11\android\src\main\AndroidManifest.xml
		INJECTED from C:\Users\Administrator\Downloads\flutter_windows_1.20.1-stable\flutter\.pub-cache\hosted\pub.dartlang.org\flutter_plugin_android_lifecycle-1.0.11\android\src\main\AndroidManifest.xml
